{
	"title": "Folio",
	"description": "Folio is a portfolio manager",
	"logo": "/path/to/logo.svg",
	"defaultSlug": "",
	"company": "Company",
	"fullName": "John Doe",
	"jobTitle": "Designer",
	"footer": "My footer",
	"theme": "test",
	"email": "johndoe@example.com",
	"portfolio": true,
	"keywords": [
		"lorem",
		"ipsum",
		"dolor"
	]
}